waveforms/MatMul.vcd
$date
2024-09-05T12:31+0000
$end
$version
0.2
$end
$comment

$end
$timescale 1ns  $end
$scope module MatMul $end
 $var wire 1 ( debug_debug_dotProdValid $end
 $var wire 32 + io_dataOut $end
 $var wire 1 A Matrix_1 $end
 $var wire 1 J io_outputValid $end
 $var wire 32 Z debug_debug_MaBout $end
 $var wire 1 a debug_debug_writeEn $end
 $var wire 32 d debug_debug_rowB $end
 $var wire 1 f Control $end
 $var wire 32 p debug_debug_colA $end
 $var wire 1 "( DotProd $end
 $var wire 32 ") io_dataInB $end
 $var wire 1 "e Matrix $end
 $var wire 1 "j clock $end
 $var wire 32 "l debug_debug_rowA $end
 $var wire 1 #+ debug_debug_execute $end
 $var wire 32 #< debug_debug_MaAout $end
 $var wire 32 #@ io_dataInA $end
 $var wire 1 #k reset $end
 $var wire 32 #p debug_debug_colB $end
  $scope module Matrix.Vector $end
  $upscope $end
  $scope module Matrix.Vector_2 $end
  $upscope $end
  $scope module Matrix_1.Vector $end
  $upscope $end
  $scope module Control $end
   $var wire 7 ! _GEN_0 $end
   $var wire 32 3 _GEN_9 $end
   $var wire 32 = _GEN_23 $end
   $var wire 32 @ io_rowMaB $end
   $var wire 1 N reset $end
   $var wire 32 V _GEN_11 $end
   $var wire 32 Y calc_rowA $end
   $var wire 32 v _GEN_2 $end
   $var wire 1 w io_execute $end
   $var wire 32 z _GEN_5 $end
   $var wire 32 "' io_colMaA $end
   $var wire 1 ". io_writeEnable $end
   $var wire 32 "0 _GEN_10 $end
   $var wire 32 "> _GEN_8 $end
   $var wire 32 "A _GEN_13 $end
   $var wire 32 "O _GEN_16 $end
   $var wire 32 "U _GEN_22 $end
   $var wire 32 "W io_rowMaA $end
   $var wire 32 "b store_col $end
   $var wire 32 "h _GEN_7 $end
   $var wire 32 #) _GEN_21 $end
   $var wire 32 #/ _GEN_15 $end
   $var wire 32 #1 _GEN_1 $end
   $var wire 32 #2 calc_col $end
   $var wire 32 #8 _GEN_4 $end
   $var wire 32 #> store_row $end
   $var wire 32 #Q _GEN_12 $end
   $var wire 7 #X value $end
   $var wire 32 #Y calc_rowB $end
   $var wire 1 #] clock $end
   $var wire 32 #l _GEN_3 $end
   $var wire 32 #z io_colMaB $end
   $var wire 32 $. _GEN_6 $end
  $upscope $end
  $scope module Matrix_1 $end
   $var wire 1 > io_writeEnable $end
   $var wire 1 ? Vector_2 $end
   $var wire 1 M _GEN_5 $end
   $var wire 1 P reset $end
   $var wire 32 \ _GEN_8 $end
   $var wire 1 b Vector $end
   $var wire 32 "< rows_1_dataOut $end
   $var wire 32 "G io_dataOut $end
   $var wire 1 "R Vector_1 $end
   $var wire 32 "S io_colIdx $end
   $var wire 1 "^ _GEN_4 $end
   $var wire 32 "u io_rowIdx $end
   $var wire 32 "v _GEN_7 $end
   $var wire 32 "z _GEN_22 $end
   $var wire 1 #( clock $end
   $var wire 32 #D rows_0_dataOut $end
   $var wire 1 #g _GEN_3 $end
   $var wire 32 #n io_dataIn $end
   $var wire 32 #q rows_2_dataOut $end
   $var wire 32 $% _GEN_6 $end
    $scope module Vector_2 $end
     $var wire 1 # io_writeEnable $end
     $var wire 32 % _GEN_1 $end
     $var wire 32 / _GEN_18 $end
     $var wire 32 C _GEN_12 $end
     $var wire 1 R reset $end
     $var wire 32 m _GEN_11 $end
     $var wire 32 r _GEN_3 $end
     $var wire 32 s internalVector_1 $end
     $var wire 32 "# internalVector_4 $end
     $var wire 32 "% _GEN_6 $end
     $var wire 32 "4 io_dataIn $end
     $var wire 32 "; _GEN_9 $end
     $var wire 32 "= io_idx $end
     $var wire 32 "E _GEN_0 $end
     $var wire 32 "H _GEN_17 $end
     $var wire 32 "Z io_dataOut $end
     $var wire 32 "c internalVector_3 $end
     $var wire 32 "o _GEN_8 $end
     $var wire 32 "s internalVector_6 $end
     $var wire 32 #! _GEN_2 $end
     $var wire 32 #% _GEN_10 $end
     $var wire 32 #' _GEN_19 $end
     $var wire 1 #, clock $end
     $var wire 32 #3 internalVector_0 $end
     $var wire 32 #7 _GEN_5 $end
     $var wire 32 #A _GEN_13 $end
     $var wire 32 #S _GEN_16 $end
     $var wire 32 #r _GEN_4 $end
     $var wire 32 #s internalVector_2 $end
     $var wire 32 #{ _GEN_7 $end
     $var wire 32 $( _GEN_15 $end
     $var wire 32 $* internalVector_5 $end
    $upscope $end
    $scope module Vector_1 $end
     $var wire 32 & internalVector_1 $end
     $var wire 1 ' clock $end
     $var wire 32 * _GEN_13 $end
     $var wire 32 9 internalVector_4 $end
     $var wire 32 < _GEN_16 $end
     $var wire 32 I _GEN_7 $end
     $var wire 32 _ io_dataIn $end
     $var wire 32 c _GEN_1 $end
     $var wire 32 l _GEN_4 $end
     $var wire 1 "$ reset $end
     $var wire 32 "& internalVector_6 $end
     $var wire 32 "* _GEN_18 $end
     $var wire 1 "- io_writeEnable $end
     $var wire 32 ": internalVector_0 $end
     $var wire 32 "I _GEN_12 $end
     $var wire 32 "M _GEN_15 $end
     $var wire 32 "[ internalVector_3 $end
     $var wire 32 "d _GEN_6 $end
     $var wire 32 "q _GEN_9 $end
     $var wire 32 "t _GEN_0 $end
     $var wire 32 "{ _GEN_3 $end
     $var wire 32 #" internalVector_2 $end
     $var wire 32 #; _GEN_17 $end
     $var wire 32 #B internalVector_5 $end
     $var wire 32 #I _GEN_11 $end
     $var wire 32 #P io_idx $end
     $var wire 32 #\ _GEN_2 $end
     $var wire 32 #h io_dataOut $end
     $var wire 32 #w _GEN_5 $end
     $var wire 32 #| _GEN_19 $end
     $var wire 32 #~ _GEN_8 $end
     $var wire 32 $+ _GEN_10 $end
    $upscope $end
    $scope module Vector $end
     $var wire 32 1 _GEN_0 $end
     $var wire 32 2 _GEN_9 $end
     $var wire 32 D io_dataOut $end
     $var wire 32 F _GEN_3 $end
     $var wire 32 O _GEN_6 $end
     $var wire 32 ` _GEN_13 $end
     $var wire 32 e io_idx $end
     $var wire 32 g internalVector_3 $end
     $var wire 32 k _GEN_16 $end
     $var wire 32 q io_dataIn $end
     $var wire 32 y internalVector_6 $end
     $var wire 32 } internalVector_0 $end
     $var wire 32 "+ _GEN_19 $end
     $var wire 1 "/ clock $end
     $var wire 32 "1 _GEN_10 $end
     $var wire 32 "6 _GEN_5 $end
     $var wire 32 "F _GEN_8 $end
     $var wire 32 "K _GEN_2 $end
     $var wire 32 "` _GEN_18 $end
     $var wire 32 "n _GEN_12 $end
     $var wire 32 "x internalVector_2 $end
     $var wire 32 "} internalVector_5 $end
     $var wire 1 #. reset $end
     $var wire 32 #0 _GEN_15 $end
     $var wire 32 #C _GEN_4 $end
     $var wire 32 #F _GEN_7 $end
     $var wire 32 #^ _GEN_1 $end
     $var wire 32 #c internalVector_4 $end
     $var wire 32 #e _GEN_17 $end
     $var wire 32 #x _GEN_11 $end
     $var wire 1 $! io_writeEnable $end
     $var wire 32 $, internalVector_1 $end
    $upscope $end
  $upscope $end
  $scope module Matrix $end
   $var wire 32 0 io_dataIn $end
   $var wire 32 5 _GEN_8 $end
   $var wire 1 B Vector_1 $end
   $var wire 1 L io_writeEnable $end
   $var wire 1 S reset $end
   $var wire 32 U rows_2_dataOut $end
   $var wire 1 { _GEN_4 $end
   $var wire 32 "D io_colIdx $end
   $var wire 32 "J _GEN_7 $end
   $var wire 32 "T rows_1_dataOut $end
   $var wire 32 "] io_rowIdx $end
   $var wire 1 #- clock $end
   $var wire 1 #9 _GEN_3 $end
   $var wire 1 #E Vector_2 $end
   $var wire 32 #R rows_0_dataOut $end
   $var wire 32 #T _GEN_6 $end
   $var wire 1 #` Vector $end
   $var wire 32 #a io_dataOut $end
   $var wire 32 #v _GEN_22 $end
   $var wire 1 $$ _GEN_5 $end
    $scope module Vector_2 $end
     $var wire 32 " _GEN_15 $end
     $var wire 32 ; _GEN_18 $end
     $var wire 32 G internalVector_6 $end
     $var wire 1 [ reset $end
     $var wire 32 ^ _GEN_1 $end
     $var wire 32 i internalVector_0 $end
     $var wire 32 u internalVector_3 $end
     $var wire 32 x _GEN_4 $end
     $var wire 1 | io_writeEnable $end
     $var wire 32 ~ _GEN_7 $end
     $var wire 32 ", _GEN_11 $end
     $var wire 32 "L _GEN_17 $end
     $var wire 32 "\ internalVector_2 $end
     $var wire 32 "a internalVector_5 $end
     $var wire 32 "f _GEN_6 $end
     $var wire 32 "i io_dataIn $end
     $var wire 32 "w _GEN_0 $end
     $var wire 32 "y _GEN_9 $end
     $var wire 32 "| _GEN_3 $end
     $var wire 32 "~ _GEN_16 $end
     $var wire 32 #4 _GEN_10 $end
     $var wire 32 #6 _GEN_19 $end
     $var wire 32 #J io_idx $end
     $var wire 32 #O _GEN_13 $end
     $var wire 32 #Z internalVector_1 $end
     $var wire 32 #_ _GEN_2 $end
     $var wire 1 #f clock $end
     $var wire 32 #j _GEN_5 $end
     $var wire 32 #u internalVector_4 $end
     $var wire 32 $# _GEN_12 $end
     $var wire 32 $) io_dataOut $end
     $var wire 32 $- _GEN_8 $end
    $upscope $end
    $scope module Vector_1 $end
     $var wire 32 $ _GEN_10 $end
     $var wire 32 , internalVector_3 $end
     $var wire 32 - _GEN_19 $end
     $var wire 32 7 _GEN_13 $end
     $var wire 32 : _GEN_5 $end
     $var wire 1 E clock $end
     $var wire 32 Q _GEN_8 $end
     $var wire 32 T _GEN_16 $end
     $var wire 32 ] io_dataOut $end
     $var wire 32 h _GEN_2 $end
     $var wire 32 j internalVector_2 $end
     $var wire 32 t internalVector_5 $end
     $var wire 32 "3 _GEN_15 $end
     $var wire 32 "9 _GEN_18 $end
     $var wire 32 "? _GEN_1 $end
     $var wire 32 "N _GEN_4 $end
     $var wire 32 "Q _GEN_12 $end
     $var wire 32 "X io_dataIn $end
     $var wire 32 "g _GEN_7 $end
     $var wire 1 "k reset $end
     $var wire 32 "p internalVector_1 $end
     $var wire 1 ## io_writeEnable $end
     $var wire 32 #$ internalVector_4 $end
     $var wire 32 #K _GEN_0 $end
     $var wire 32 #M _GEN_9 $end
     $var wire 32 #W _GEN_17 $end
     $var wire 32 #b _GEN_11 $end
     $var wire 32 #d _GEN_3 $end
     $var wire 32 #i internalVector_6 $end
     $var wire 32 #t _GEN_6 $end
     $var wire 32 #} io_idx $end
     $var wire 32 $& internalVector_0 $end
    $upscope $end
    $scope module Vector $end
     $var wire 32 . _GEN_11 $end
     $var wire 32 4 _GEN_2 $end
     $var wire 32 6 _GEN_5 $end
     $var wire 32 H _GEN_17 $end
     $var wire 32 W internalVector_4 $end
     $var wire 32 X _GEN_8 $end
     $var wire 1 n reset $end
     $var wire 32 o internalVector_1 $end
     $var wire 32 "! _GEN_16 $end
     $var wire 32 "2 _GEN_7 $end
     $var wire 32 "5 io_dataIn $end
     $var wire 32 "8 _GEN_1 $end
     $var wire 1 "@ io_writeEnable $end
     $var wire 32 "B _GEN_10 $end
     $var wire 32 "C _GEN_19 $end
     $var wire 32 "P _GEN_13 $end
     $var wire 32 "V internalVector_0 $end
     $var wire 32 "Y _GEN_4 $end
     $var wire 32 "_ internalVector_3 $end
     $var wire 32 "m internalVector_6 $end
     $var wire 32 #& _GEN_3 $end
     $var wire 32 #5 io_dataOut $end
     $var wire 32 #= _GEN_15 $end
     $var wire 32 #? _GEN_6 $end
     $var wire 32 #G _GEN_0 $end
     $var wire 32 #N _GEN_18 $end
     $var wire 32 #V _GEN_9 $end
     $var wire 32 #[ _GEN_12 $end
     $var wire 32 #o internalVector_2 $end
     $var wire 32 #y io_idx $end
     $var wire 32 $" internalVector_5 $end
     $var wire 1 $' clock $end
    $upscope $end
  $upscope $end
  $scope module Matrix_1.Vector_1 $end
  $upscope $end
  $scope module DotProd $end
   $var wire 32 ) io_dataInA $end
   $var wire 1 8 reset $end
   $var wire 64 K _GEN_2 $end
   $var wire 32 "" io_dataOut $end
   $var wire 32 "7 accumulator $end
   $var wire 64 "r product $end
   $var wire 32 #* io_dataInB $end
   $var wire 3 #: value $end
   $var wire 1 #H io_outputValid $end
   $var wire 1 #L clock $end
   $var wire 64 #U _GEN_3 $end
   $var wire 3 #m _GEN_0 $end
  $upscope $end
  $scope module Matrix.Vector_1 $end
  $upscope $end
  $scope module Matrix_1.Vector_2 $end
  $upscope $end
$upscope $end
$enddefinitions $end
$dumpvars
0R
b00000000000000000000000000000000 #}
b00000000000000000000000000000000 #h
b00000000000000000000000000000000 $,
b00000000000000000000000000000000 "U
b00000000000000000000000000000000 r
b00000000000000000000000000000000 #6
b00000000000000000000000000000000 "M
b00000000000000000000000000000000 "8
b0000000 #X
b00000000000000000000000000000000 "#
b00000000000000000000000000000000 #K
b00000000000000000000000000000000 #*
b00000000000000000000000000000000 "I
b00000000000000000000000000000000 Q
b00000000000000000000000000000000 "4
0a
0L
0"@
b00000000000000000000000000000000 #w
b00000000000000000000000000000000 #o
b00000000000000000000000000000000 #Z
b00000000000000000000000000000000 "y
b00000000000000000000000000000000 0
b00000000000000000000000000000000 #=
b00000000000000000000000000000000 "\
b00000000000000000000000000000000 "G
b00000000000000000000000000000000 "*
b00000000000000000000000000000000 s
b00000000000000000000000000000000 #s
b00000000000000000000000000000000 #V
b00000000000000000000000000000000 "u
b00000000000000000000000000000000 $
b00000000000000000000000000000000 "X
b00000000000000000000000000000000 "C
b00000000000000000000000000000000 #$
b00000000000000000000000000000000 "&
b0000000000000000000000000000000000000000000000000000000000000000 "r
b00000000000000000000000000000000 q
0#E
b00000000000000000000000000000000 T
0>
b00000000000000000000000000000000 #i
b00000000000000000000000000000000 m
0#,
b00000000000000000000000000000000 e
b00000000000000000000000000000000 #z
b00000000000000000000000000000000 #e
0".
b00000000000000000000000000000000 3
b00000000000000000000000000000000 $)
b00000000000000000000000000000000 "g
b00000000000000000000000000000000 "5
b00000000000000000000000000000000 #v
b00000000000000000000000000000000 /
b00000000000000000000000000000000 $%
b00000000000000000000000000000000 "c
b00000000000000000000000000000000 #D
b00000000000000000000000000000000 "1
0?
b00000000000000000000000000000000 #j
b00000000000000000000000000000000 "W
b00000000000000000000000000000000 t
b00000000000000000000000000000000 _
b00000000000000000000000000000000 #8
b00000000000000000000000000000000 "%
b00000000000000000000000000000000 -
b00000000000000000000000000000000 #W
b00000000000000000000000000000000 "v
0"k
0#L
b00000000000000000000000000000000 "S
b00000000000000000000000000000000 #4
b00000000000000000000000000000000 p
b00000000000000000000000000000000 "6
b00000000000000000000000000000000 "!
0$!
0N
b00000000000000000000000000000000 #y
0"-
b00000000000000000000000000000000 2
b00000000000000000000000000000000 #G
b00000000000000000000000000000000 $(
b00000000000000000000000000000000 "Q
b00000000000000000000000000000000 "f
b00000000000000000000000000000000 #2
0|
0J
b00000000000000000000000000000000 #u
b00000000000000000000000000000000 .
b00000000000000000000000000000000 "w
b00000000000000000000000000000000 #C
b00000000000000000000000000000000 "b
b00000000000000000000000000000000 "E
b00000000000000000000000000000000 "0
b00000000000000000000000000000000 #&
b0000000000000000000000000000000000000000000000000000000000000000 #U
b00000000000000000000000000000000 #?
b00000000000000000000000000000000 "A
b00000000000000000000000000000000 ",
b00000000000000000000000000000000 ^
b00000000000000000000000000000000 #"
b00000000000000000000000000000000 ,
0#`
b00000000000000000000000000000000 o
0n
0#.
b00000000000000000000000000000000 =
0'
b00000000000000000000000000000000 #R
b00000000000000000000000000000000 "q
b00000000000000000000000000000000 $+
b00000000000000000000000000000000 #J
b00000000000000000000000000000000 "T
b00000000000000000000000000000000 "?
b00000000000000000000000000000000 #5
b00000000000000000000000000000000 "7
b00000000000000000000000000000000 ""
b00000000000000000000000000000000 "i
0M
b00000000000000000000000000000000 #x
b00000000000000000000000000000000 #c
b00000000000000000000000000000000 "m
b00000000000000000000000000000000 #N
0#
b00000000000000000000000000000000 #F
b00000000000000000000000000000000 "P
b00000000000000000000000000000000 #1
08
b00000000000000000000000000000000 "3
b00000000000000000000000000000000 ~
0#(
b0000000 !
0#k
b00000000000000000000000000000000 z
0#9
b00000000000000000000000000000000 ]
b00000000000000000000000000000000 H
b00000000000000000000000000000000 #r
b00000000000000000000000000000000 @
b00000000000000000000000000000000 +
b00000000000000000000000000000000 "t
b00000000000000000000000000000000 #@
b00000000000000000000000000000000 "_
b00000000000000000000000000000000 "B
b00000000000000000000000000000000 Y
0#-
b00000000000000000000000000000000 #n
b00000000000000000000000000000000 <
b00000000000000000000000000000000 #Q
b00000000000000000000000000000000 "p
b00000000000000000000000000000000 ">
0#]
b00000000000000000000000000000000 $&
b00000000000000000000000000000000 "d
b00000000000000000000000000000000 l
0#H
0#+
b00000000000000000000000000000000 "2
b00000000000000000000000000000000 O
b00000000000000000000000000000000 :
b00000000000000000000000000000000 #d
b00000000000000000000000000000000 "`
b00000000000000000000000000000000 }
b00000000000000000000000000000000 h
b00000000000000000000000000000000 #A
b00000000000000000000000000000000 $"
b00000000000000000000000000000000 `
b00000000000000000000000000000000 6
0[
b00000000000000000000000000000000 #q
b00000000000000000000000000000000 "s
b00000000000000000000000000000000 #T
b00000000000000000000000000000000 ;
b00000000000000000000000000000000 "o
b00000000000000000000000000000000 #P
0"j
b00000000000000000000000000000000 #3
b00000000000000000000000000000000 "=
b00000000000000000000000000000000 Z
b0000000000000000000000000000000000000000000000000000000000000000 K
b00000000000000000000000000000000 #a
b00000000000000000000000000000000 $-
b00000000000000000000000000000000 "N
b00000000000000000000000000000000 #/
b00000000000000000000000000000000 V
b00000000000000000000000000000000 "9
b00000000000000000000000000000000 k
b00000000000000000000000000000000 9
0{
0f
b00000000000000000000000000000000 #t
0"(
b00000000000000000000000000000000 #_
b00000000000000000000000000000000 "~
b00000000000000000000000000000000 "a
b00000000000000000000000000000000 "L
b00000000000000000000000000000000 i
b00000000000000000000000000000000 #B
b00000000000000000000000000000000 "D
b00000000000000000000000000000000 $#
b00000000000000000000000000000000 #%
0w
0b
0E
b00000000000000000000000000000000 #p
b00000000000000000000000000000000 "z
0"$
0(
b00000000000000000000000000000000 #S
b00000000000000000000000000000000 "]
b00000000000000000000000000000000 #)
b00000000000000000000000000000000 "H
b00000000000000000000000000000000 #>
b00000000000000000000000000000000 #[
b00000000000000000000000000000000 "+
b00000000000000000000000000000000 #!
b00000000000000000000000000000000 )
0#g
b00000000000000000000000000000000 "<
b00000000000000000000000000000000 "'
b00000000000000000000000000000000 D
b000 #:
0"e
0$'
b00000000000000000000000000000000 j
b00000000000000000000000000000000 U
b00000000000000000000000000000000 #b
b00000000000000000000000000000000 "l
b00000000000000000000000000000000 $.
b00000000000000000000000000000000 #M
b00000000000000000000000000000000 #0
b00000000000000000000000000000000 ":
b00000000000000000000000000000000 "O
0P
b00000000000000000000000000000000 #{
0"/
b00000000000000000000000000000000 I
b00000000000000000000000000000000 4
b00000000000000000000000000000000 "}
b00000000000000000000000000000000 "h
b00000000000000000000000000000000 $*
b00000000000000000000000000000000 #^
b00000000000000000000000000000000 #I
b00000000000000000000000000000000 "K
b00000000000000000000000000000000 y
b00000000000000000000000000000000 d
0##
b00000000000000000000000000000000 \
b00000000000000000000000000000000 G
b00000000000000000000000000000000 #\
b00000000000000000000000000000000 "{
b00000000000000000000000000000000 *
0#f
b00000000000000000000000000000000 u
b00000000000000000000000000000000 ";
b00000000000000000000000000000000 X
0B
b00000000000000000000000000000000 C
b00000000000000000000000000000000 &
b00000000000000000000000000000000 #;
b00000000000000000000000000000000 "Z
b000 #m
0S
b00000000000000000000000000000000 #~
b00000000000000000000000000000000 7
b00000000000000000000000000000000 "
b00000000000000000000000000000000 #7
b00000000000000000000000000000000 "V
b00000000000000000000000000000000 "|
0$$
b00000000000000000000000000000000 "J
b00000000000000000000000000000000 g
b00000000000000000000000000000000 #|
b00000000000000000000000000000000 5
b00000000000000000000000000000000 "x
b00000000000000000000000000000000 #Y
b00000000000000000000000000000000 #<
b00000000000000000000000000000000 "F
b00000000000000000000000000000000 #'
b00000000000000000000000000000000 x
0"^
b00000000000000000000000000000000 ")
b00000000000000000000000000000000 F
b00000000000000000000000000000000 1
b00000000000000000000000000000000 "[
b00000000000000000000000000000000 c
0"R
b00000000000000000000000000000000 W
0A
b00000000000000000000000000000000 #l
b00000000000000000000000000000000 %
b00000000000000000000000000000000 "n
b00000000000000000000000000000000 "Y
b00000000000000000000000000000000 v
b00000000000000000000000000000000 #O
$end
#0
1#k
b0000001 !
1a
18
1$!
b00000000000000000000000000000001 3
1P
1L
b001 #m
1"k
1R
1S
1#9
1"@
1[
1>
b00000000000000000000000000000001 "h
1N
b00000000000000000000000000000001 #l
b00000000000000000000000000000001 #/
1".
b00000000000000000000000000000001 v
1n
1#.
1#g
1"$
b00000000000000000000000000000001 V
#1
1'
1"/
1"j
1E
1#]
1$'
1#(
1#,
1#L
1#-
1#f
#6
0$'
0"j
0#(
0#f
0#L
0#]
0'
0E
0#-
0"/
0#,
#11
1'
1"/
1"j
1E
1#]
1$'
1#(
1#,
1#L
1#-
1#f
#16
0$'
0"j
0#(
0#f
0#L
0#]
0'
0E
0#-
0"/
0#,
#21
1'
1"/
1"j
1E
1#]
1$'
1#(
1#,
1#L
1#-
1#f
#26
0$'
0"j
0#(
0#f
0#L
0#]
0'
0E
0#-
0"/
0#,
#31
1'
1"/
1"j
1E
1#]
1$'
1#(
1#,
1#L
1#-
1#f
#36
0$'
0"j
0#(
0#f
0#L
0#]
0'
0E
0#-
0"/
0#,
#41
1'
1"/
1"j
1E
1#]
1$'
1#(
1#,
1#L
1#-
1#f
#46
0#L
0"$
0R
0E
0#-
0S
0[
b00000000000000000000000000000011 ")
0#,
0#k
0#.
0$'
0"j
0#(
0P
b00000000000000000000000000000011 q
b00000000000000000000000000000011 1
0"k
b00000000000000000000000000000011 #F
0#f
b00000000000000000000000000000011 #n
b00000000000000000000000000000011 $%
0n
0'
08
0#]
0"/
0N
#51
1E
1#]
b00000000000000000000000000000011 "F
b010 #m
b00000000000000000000000000000001 e
b00000000000000000000000000000011 }
b00000000000000000000000000000001 #p
1'
1"/
b00000000000000000000000000000001 #y
1"j
1$'
b00000000000000000000000000000001 "b
b001 #:
b00000000000000000000000000000001 #z
b0000010 !
b00000000000000000000000000000001 "S
1#(
b00000000000000000000000000000001 "'
1#L
b00000000000000000000000000000001 p
b00000000000000000000000000000001 "D
b00000000000000000000000000000010 #/
b0000001 #X
1#,
1#-
1#f
b00000000000000000000000000000010 #l
b00000000000000000000000000000011 #^
#56
b00000000000000000000000000000000 "F
0#L
0#f
0'
0E
0#-
b00000000000000000000000000000000 #n
0#,
0$'
0"j
0#(
0#]
b00000000000000000000000000000000 #^
b00000000000000000000000000000000 q
0"/
b00000000000000000000000000000000 ")
b00000000000000000000000000000000 $%
#61
b00000000000000000000000000000011 #l
1#]
1E
b00000000000000000000000000000010 p
1#(
b00000000000000000000000000000010 "'
b011 #m
1#L
b010 #:
1'
1"/
1"j
1$'
b0000010 #X
b00000000000000000000000000000011 #/
b00000000000000000000000000000010 #z
b00000000000000000000000000000010 "D
b00000000000000000000000000000010 #y
1#,
1#-
b00000000000000000000000000000010 #p
b00000000000000000000000000000010 "S
b00000000000000000000000000000010 e
1#f
b00000000000000000000000000000010 "b
b00000000000000000000000000000011 #0
b0000011 !
#66
b00000000000000000000000000000100 4
b00000000000000000000000000000100 #@
0#L
0#f
0'
0E
0#-
b00000000000000000000000000000010 $%
b00000000000000000000000000000010 q
b00000000000000000000000000000010 #n
b00000000000000000000000000000100 #V
0#,
b00000000000000000000000000000100 0
b00000000000000000000000000000010 2
b00000000000000000000000000000100 #T
0$'
0"j
0#(
0#]
b00000000000000000000000000000100 "5
0"/
b00000000000000000000000000000010 ")
b00000000000000000000000000000010 "K
#71
b00000000000000000000000000000010 "1
b00000000000000000000000000000011 #p
1#]
1E
b0000011 #X
b00000000000000000000000000000011 "'
b00000000000000000000000000000011 p
b00000000000000000000000000000011 "D
b00000000000000000000000000000010 "x
b100 #m
1'
1"/
1"j
1$'
b00000000000000000000000000000100 #/
b0000100 !
b00000000000000000000000000000011 #z
b011 #:
b00000000000000000000000000000011 k
1#(
b00000000000000000000000000000100 "B
b00000000000000000000000000000100 #o
b00000000000000000000000000000011 e
1#L
b00000000000000000000000000000011 #y
b00000000000000000000000000000011 "S
b00000000000000000000000000000100 #&
b00000000000000000000000000000010 F
b00000000000000000000000000000011 "b
1#,
1#-
1#f
b00000000000000000000000000000100 #l
#76
b00000000000000000000000000000011 0
0#L
b00000000000000000000000000000011 #&
0#f
b00000000000000000000000000000011 #@
0'
b00000000000000000000000000000011 "B
0E
0#-
b00000000000000000000000000000011 "5
0#,
0$'
0"j
0#(
0#]
b00000000000000000000000000000011 #T
0"/
#81
1E
1#]
b00000000000000000000000000000011 .
b00000000000000000000000000000100 #p
b00000000000000000000000000000101 #/
b00000000000000000000000000000011 "_
b00000000000000000000000000000100 "'
b00000000000000000000000000000010 #C
b00000000000000000000000000000010 #x
1'
1"/
1"j
b00000000000000000000000000000100 #z
1$'
b00000000000000000000000000000100 p
b00000000000000000000000000000100 "D
b00000000000000000000000000000100 "S
b00000000000000000000000000000011 #e
b0000100 #X
b0000101 !
b00000000000000000000000000000101 #l
1#(
1#L
b00000000000000000000000000000100 #y
b100 #:
b00000000000000000000000000000011 "Y
b00000000000000000000000000000100 "b
b00000000000000000000000000000100 e
b101 #m
1#,
1#-
1#f
b00000000000000000000000000000010 g
#86
0#L
0#f
b00000000000000000000000000000001 "Y
b00000000000000000000000000000001 .
0'
b00000000000000000000000000000001 #x
b00000000000000000000000000000001 0
0E
0#-
b00000000000000000000000000000001 $%
b00000000000000000000000000000001 #C
b00000000000000000000000000000001 "5
0#,
b00000000000000000000000000000001 #T
0$'
0"j
0#(
0#]
b00000000000000000000000000000001 #@
b00000000000000000000000000000001 #n
b00000000000000000000000000000001 q
0"/
b00000000000000000000000000000001 ")
#91
1E
1#]
b101 #:
b00000000000000000000000000000101 #y
b00000000000000000000000000000011 "`
b0000101 #X
b00000000000000000000000000000001 #[
b00000000000000000000000000000101 p
1'
1"/
b00000000000000000000000000000101 #p
1"j
b110 #m
1$'
b00000000000000000000000000000101 "D
b00000000000000000000000000000101 "b
b00000000000000000000000000000101 e
b00000000000000000000000000000001 6
b00000000000000000000000000000001 W
b0000110 !
b00000000000000000000000000000001 #c
b00000000000000000000000000000001 "n
b00000000000000000000000000000110 #l
1#(
1#L
b00000000000000000000000000000110 #/
b00000000000000000000000000000101 "S
b00000000000000000000000000000001 "6
b00000000000000000000000000000101 "'
b00000000000000000000000000000101 #z
1#,
1#-
1#f
#96
0#L
b00000000000000000000000000000011 "n
0#f
b00000000000000000000000000000011 #n
b00000000000000000000000000000011 $%
0'
0E
0#-
b00000000000000000000000000000011 ")
0#,
0$'
0"j
0#(
0#]
b00000000000000000000000000000011 q
b00000000000000000000000000000011 "6
0"/
#101
1E
1#]
b00000000000000000000000000000001 "P
b00000000000000000000000000000000 #/
b0000111 !
b00000000000000000000000000000001 #8
b00000000000000000000000000000011 "+
b00000000000000000000000000000110 "S
1'
1"/
1"j
b00000000000000000000000000000110 "b
1$'
1#H
b00000000000000000000000000000110 #y
1(
b00000000000000000000000000000001 $"
b00000000000000000000000000000011 O
b00000000000000000000000000000011 `
b00000000000000000000000000000110 #p
1#(
b00000000000000000000000000000110 "'
b00000000000000000000000000000001 "O
1#L
b000 #m
b00000000000000000000000000000110 "D
b00000000000000000000000000000110 #z
b110 #:
b00000000000000000000000000000000 #l
b00000000000000000000000000000110 p
b00000000000000000000000000000001 #?
b00000000000000000000000000000011 "}
1#,
1#-
1#f
b0000110 #X
b00000000000000000000000000000110 e
#106
b00000000000000000000000000000010 `
0#L
0#f
0'
0E
0#-
b00000000000000000000000000000010 $%
b00000000000000000000000000000010 q
b00000000000000000000000000000010 #n
0#,
0$'
0"j
0#(
0#]
0"/
b00000000000000000000000000000010 ")
b00000000000000000000000000000010 O
#111
0#g
1#]
0$!
b00000000000000000000000000000001 #>
1'
1"/
b00000000000000000000000000000001 @
b00000000000000000000000000000010 "v
b00000000000000000000000000000001 #l
b00000000000000000000000000000001 #/
0#9
b00000000000000000000000000000000 q
b00000000000000000000000000000011 D
b00000000000000000000000000000000 p
0"@
b00000000000000000000000000000010 _
b000 #:
b00000000000000000000000000000001 "W
b00000000000000000000000000000001 "X
b00000000000000000000000000000000 "D
b00000000000000000000000000000001 "m
b001 #m
b00000000000000000000000000000000 "S
b00000000000000000000000000000001 "J
b0001000 !
b00000000000000000000000000000010 I
b00000000000000000000000000000011 #D
b00000000000000000000000000000000 1
1E
b00000000000000000000000000000001 "g
b00000000000000000000000000000010 v
1"^
b0000111 #X
b00000000000000000000000000000001 d
b00000000000000000000000000000000 #z
1"j
1$'
b00000000000000000000000000000000 "5
b00000000000000000000000000000000 "'
b00000000000000000000000000000000 #p
0(
b00000000000000000000000000000000 $%
b00000000000000000000000000000001 "]
b00000000000000000000000000000001 "u
b00000000000000000000000000000000 e
b00000000000000000000000000000010 y
1#(
b00000000000000000000000000000010 "t
b00000000000000000000000000000000 #T
1##
1#L
b00000000000000000000000000000001 #K
b00000000000000000000000000000001 "l
0#H
1#,
1#-
1{
1#f
b00000000000000000000000000000000 "b
b00000000000000000000000000000000 #y
1"-
#116
b00000000000000000000000000000011 0
0#L
b00000000000000000000000000000011 "J
0#f
b00000000000000000000000000000011 #@
0'
0E
0#-
b00000000000000000000000000000000 "t
b00000000000000000000000000000000 I
b00000000000000000000000000000011 "X
b00000000000000000000000000000000 #n
0#,
0$'
0"j
0#(
0#]
0"/
b00000000000000000000000000000000 "v
b00000000000000000000000000000000 ")
b00000000000000000000000000000000 _
b00000000000000000000000000000011 #K
b00000000000000000000000000000011 "g
